{
  "assignment": [
    {
      "id": 1037358462,
      "title": "Final Test",
      "description": "",
      "due": "",
      "grading_scale": "0",
      "grading_period": "0",
      "grading_category": "0",
      "max_points": "100",
      "factor": "1",
      "is_final": "0",
      "show_comments": "0",
      "grade_stats": "0",
      "allow_dropbox": "0",
      "allow_discussion": "0",
      "published": 1,
      "type": "assessment",
      "grade_item_id": 1037358462,
      "available": 1,
      "completed": 1,
      "dropbox_locked": 0,
      "grading_scale_type": 0,
      "show_rubric": false,
      "display_weight": "8",
      "folder_id": "80456664",
      "last_updated": "1491991885",
      "completion_status": "",
      "links": {
        "self": "https://api.schoology.com/v1/sections/1037358252/assignments/1037358462"
      }
    },
    {
      "id": 1062628768,
      "title": "Homework_1",
      "description": "Задачи на теги\n\n\nСоздайте пустую страницу HTML. Добавьте в нее структуру: теги doctype, html, head, body. Добавьте теги title и meta с атрибутом charset. Изучите какие теги являются парными и непарными. \n\n\nДобавьте в документ заголовки 1-6 уровня. Заполните их. Изучите отображение тегов в webdevs tools.\n\n\nДобавьте 2 параграфа, заполните их стандартным текстом “рыбой” lorem ipsum. Изучите как отображаются теги с помощью webdevs tools.\n\n\nДобавьте внутрь параграфа тег br. Изучите принцип его работы. \n\n\nДобавьте после параграфа тег hr. Изучите его свойства через devtools.\n\n\nОберните любые 2-3 слова внутри параграфа в теги span. \n\n\nДобавьте гиперссылку. Текст якоря yandex, адрес страницы, на которую ведет ссылка - http://yandex.ua.\n\n\nДобавьте гиперссылки на поисковики: Google, Bing, Duck duck go.\n\n\nДобавьте изображение на страницу с помощью тега img. Изучите как он отображается в chrome devtools.\n\n\nДобавьте несколько изображений. Изучите как они ведут себя при изменении размера окна браузера.\n\n\nОберните последнее изображение гиперссылкой. Убедитесь, что при клике по картинке осуществляется переход по указанной ссылке. \n\n\nДобавьте гиперссылки-изображения на указанные выше поисковики.\n\n\nЗадачи на спецсимволы\n\n\nС помощью спецсимволов создайте надпись “2017 © Copyright”\n\n\nДобавьте параграф содержащий стрелки: ← ↑ →  ↓\n\n\nНаберите формулу: ψ = φ*ξ\n\n\nЗадачи на sub, sup\n\n\nНаберите формулу:  ξ1+Ψ3 = Σ2+Ω4\n\n\nНаберите формулу: x1+x2=-p\n\n\nВалидация \n\nВыполните валидацию созданных страниц. При необходимости исправьте код так, чтобы файлы прошли валидацию. \n",
      "due": "2017-05-15 23:59:00",
      "grading_scale": "0",
      "grading_period": "0",
      "grading_category": "12734172",
      "max_points": "100",
      "factor": "1",
      "is_final": "0",
      "show_comments": "0",
      "grade_stats": "0",
      "allow_dropbox": "1",
      "allow_discussion": "1",
      "published": 1,
      "type": "assignment",
      "grade_item_id": 1062628768,
      "available": 1,
      "completed": 1,
      "dropbox_locked": 0,
      "grading_scale_type": 0,
      "show_rubric": false,
      "display_weight": "2",
      "folder_id": "80748128",
      "last_updated": "1494832130",
      "completion_status": "",
      "links": {
        "self": "https://api.schoology.com/v1/sections/1037358252/assignments/1062628768"
      }
    },
    {
      "id": 1071934658,
      "title": "Homework_2",
      "description": "",
      "due": "2017-05-23 23:59:00",
      "grading_scale": "0",
      "grading_period": "0",
      "grading_category": "12734172",
      "max_points": "100",
      "factor": "1",
      "is_final": "0",
      "show_comments": "0",
      "grade_stats": "0",
      "allow_dropbox": "1",
      "allow_discussion": "1",
      "published": 1,
      "type": "assignment",
      "grade_item_id": 1071934658,
      "available": 1,
      "completed": 1,
      "dropbox_locked": 0,
      "grading_scale_type": 0,
      "show_rubric": false,
      "display_weight": "6",
      "folder_id": "81284668",
      "last_updated": "1495461859",
      "completion_status": "",
      "links": {
        "self": "https://api.schoology.com/v1/sections/1037358252/assignments/1071934658"
      }
    },
    {
      "id": 1078380928,
      "title": "Homework_03",
      "description": "\n\n\n\nВ качестве ответов на данные задания являются ссылки на созданные репозитории.\nЗадание 1. Зарегистрируйтесь на github.com. Заполните профиль, добавьте фотографию. Внесите реальную фамилию и имя.\r\n Задание 2. Создайте первый репозиторий. Дайте ему название DZ_2_1. Загрузите первое задание с домашней работы номер 2. Добавьте к нему файл описания readme.md. Файл описания должен содержать название работы ( домашнее задание 2, задание 1), и printscreen результата. \nЗадание 3. Повторите действия со всеми заданиями со второй работы.\r\n Задание 4. Создайте папку и в ней html файл. В него внесите заголовок первого уровня с текстом “first”. \n\n\n●  Создайте репозиторий на github с названием DZ_3_4. \n\n\n●  Инициализируйте гит в созданной папке ( git init ). \n\n\n●  Добавьте все файлы из папки для отслеживания ( git add . ). \n\n\n●  Создайте коммит с комментарием h1- first ( git commit -m “h1-first” ). \n\n\n●  Сделайте push коммита на гит ( git push -u origin master не забудьте в первый \npush связать origin с вашим репозиторием командой git remote add origin \nyou_rep_address ). \n\n\n●  Просмотрите файлы на сервере гита. \n\n\n●  Добавьте в локальный файл тег h2 с текстом “second” \n\n\n●  С помощью команды git status изучите состояние проекта. \n\n\n●  Сделайте коммит с комментарием “h2 - second” \n\n\n●  Сделайте push на репозиторий. \n\n\n●  Посмотрите как изменится состояние репозитория на сервере. \n\n\n●  Создайте новую локальную папку. Выполните клонирование созданного \nрепозитория в данную папку. \n\n\n\n\n\n\n\n\n\n\nРабота с ветками \nЗадание 5. Создайте тестовый репозиторий DZ_3_5 . Добавьте в него файл index.html и создайте в нем стандартную структуру тегов. \n\n\n●  Инициализируйте git ( git init ) \n\n\n●  Добавьте файлы для отслеживания \n\n\n●  Сделайте коммит \n\n\n●  Выполните push коммита в origin master . \n\n\n●  Выполните команду git checkout -b s1. Данная команда создаст ветвь s1 . \n\n\n●  Проверьте состояние с помощью git status . Если вы не находитесь в ветке s1 (а \nкоманда создания новой ветки, автоматически переводит вас на нее) выполните \nкоманду git checkout s1 для переключения на новую ветку. \n\n\n●  Добавьте в проект файл style.css. Внесите в него несколько правил. \n\n\n●  Добавьте созданные файлы к отслеживанию \n\n\n●  Создайте коммит с текстом “ branch s1 commit 1 ” \n\n\n●  Сделайте push коммита в ветвь s1, для этого выполните команду push -u origin s1 \n\n\n●  Просмотрите результат работы на сайте git. Изучите две ветки. Обратите \nвнимание, что в первой ветке у вас один файл, а во второй - два. \n\n\n●  Переключитесь на ветвь master с помощью команды git checkout master . \nПросмотрите файлы в папке. Если вы все сделали правильно у вас в каталоге \nостанется один файл. \n\n\n●  Переключитесь на ветвь s1 с помощью команды git checkout s1 . Просмотрите\r\nфайлы в папке. Если вы все сделали правильно у вас в каталоге появится файл style.css. Таким образом вы имеете возможность работать над разными частями проекта.\n\r\nОбъединение ветвей\n\n\n\n\n●  Переключитесь на ветку master . \n\n\n●  Выполните команду git merge s1 . Посмотрите на изменения в каталоге. Появился \nфайл style.css? \n\n\n●  Добавьте файл к отслеживанию. \n\n\n\n\n\n\n\n\n\n\n\n\n●  Создайте коммит. \n\n\n●  Выполните push в origin master. \n\n\n●  Просмотрите результат на сайте\n\n\n\n\n\n",
      "due": "2017-05-25 23:59:00",
      "grading_scale": "0",
      "grading_period": "0",
      "grading_category": "12734172",
      "max_points": "100",
      "factor": "1",
      "is_final": "0",
      "show_comments": "0",
      "grade_stats": "0",
      "allow_dropbox": "1",
      "allow_discussion": "1",
      "published": 1,
      "type": "assignment",
      "grade_item_id": 1078380928,
      "available": 1,
      "completed": 1,
      "dropbox_locked": 0,
      "grading_scale_type": 0,
      "show_rubric": false,
      "display_weight": "5",
      "folder_id": "81564646",
      "last_updated": "1495622799",
      "completion_status": "",
      "links": {
        "self": "https://api.schoology.com/v1/sections/1037358252/assignments/1078380928"
      }
    },
    {
      "id": 1096102046,
      "title": "Homework_04",
      "description": "Задание 1. Выполнить верстку на основе макета. Подробности и макет скачать с github: https://github.com/luschenko/photoshop_assets_1\n\r\nЗадание 2. Выполнить верстку на основе макета. Подробности и макет скачать с github: https://github.com/luschenko/photoshop_assets_2",
      "due": "2017-06-08 23:59:00",
      "grading_scale": "0",
      "grading_period": "0",
      "grading_category": "12734172",
      "max_points": "100",
      "factor": "1",
      "is_final": "0",
      "show_comments": "0",
      "grade_stats": "0",
      "allow_dropbox": "1",
      "allow_discussion": "0",
      "published": 1,
      "type": "assignment",
      "grade_item_id": 1096102046,
      "available": 1,
      "completed": 1,
      "dropbox_locked": 0,
      "grading_scale_type": 0,
      "show_rubric": false,
      "display_weight": "4",
      "folder_id": "82359950",
      "last_updated": "1496315225",
      "completion_status": "",
      "links": {
        "self": "https://api.schoology.com/v1/sections/1037358252/assignments/1096102046"
      }
    },
    {
      "id": 1097736678,
      "title": "Homework_05",
      "description": "Домашнее задание",
      "due": "2017-06-12 23:59:00",
      "grading_scale": "0",
      "grading_period": "0",
      "grading_category": "12734172",
      "max_points": "100",
      "factor": "1",
      "is_final": "0",
      "show_comments": "0",
      "grade_stats": "0",
      "allow_dropbox": "1",
      "allow_discussion": "0",
      "published": 1,
      "type": "assignment",
      "grade_item_id": 1097736678,
      "available": 1,
      "completed": 1,
      "dropbox_locked": 0,
      "grading_scale_type": 0,
      "show_rubric": false,
      "display_weight": "6",
      "folder_id": "82600402",
      "last_updated": "1496404594",
      "completion_status": "",
      "links": {
        "self": "https://api.schoology.com/v1/sections/1037358252/assignments/1097736678"
      }
    },
    {
      "id": 1109509044,
      "title": "Homework_06(1)",
      "description": "Модуль 6. Домашнее задание\nЧасть 1\n \nЗадание 1. Используя псевдоклассы, создайте два параграфа, которые реагируют на мышь следующим образом:\n \n\n\n\n\n\nДействия\n\n\np1\n\n\np2\n\n\n\n\nОбычное состояние\n\n\nФон зеленый\n\n\nФон фиолетовый\n\n\n\n\nнажатие\n\n\nФон красный\n\n\nФон золотой\n\n\n\n\nнаведение\n\n\nФон желтый\n\n\nФон коричневый\n\n\n\n\n\n \nЗадание 2. Создайте элемент input[type=text]. С помощью псевдоклассов задайте при активном состоянии input (когда курсов находится внутри элемента, момент введения текста)  зеленую границу.\n \nЗадание 3. Создайте несколько параграфов. Выделите серым цветом фона четные элементы (nth-child).\n \nЗадание 4. Сделайте несколько параграфов. Используя псевдоэлементы сделайте первую букву параграфов размером 2em, цвет красный, шрифт Georgia.\n \nЗадание 5. С помощью псевдоэлементов добавьте после текста всех параграфов значок звездочки (*).\n \nЗадание 6. С помощью псевдоэлементов добавьте перед текстом всех параграфов значек “зонтик”. Код символа по unicode  U+2602.\n \nЗадание 7. Используя псевдоэлементы создайте следующую фигуру:\n\nДля создания основного блока используйте  div, для создания треугольника - псевдоэлемент.\n \n \n \n ",
      "due": "2017-06-21 23:59:59",
      "grading_scale": "0",
      "grading_period": "0",
      "grading_category": "12734172",
      "max_points": "100",
      "factor": "1",
      "is_final": "0",
      "show_comments": "0",
      "grade_stats": "1",
      "allow_dropbox": "1",
      "allow_discussion": "1",
      "published": 1,
      "type": "assignment",
      "grade_item_id": 1109509044,
      "available": 1,
      "completed": 1,
      "dropbox_locked": 0,
      "grading_scale_type": 0,
      "show_rubric": false,
      "display_weight": "1",
      "folder_id": "83268332",
      "last_updated": "1497445793",
      "completion_status": "",
      "links": {
        "self": "https://api.schoology.com/v1/sections/1037358252/assignments/1109509044"
      }
    },
    {
      "id": 1109509048,
      "title": "Homework_06(2)",
      "description": "Модуль 6. Домашнее заданиеТаблицы и списки\nЗадание 1. Выполните верстку таблицы:\n\nЗадание 2. Выполните верстку таблицы:\n\nЗадание 3. Выполните верстку таблицы\n\nЗадание 4. Выполните верстку таблицы\n\n ",
      "due": "2017-06-21 23:59:59",
      "grading_scale": "0",
      "grading_period": "0",
      "grading_category": "12734172",
      "max_points": "100",
      "factor": "1",
      "is_final": "0",
      "show_comments": "0",
      "grade_stats": "1",
      "allow_dropbox": "1",
      "allow_discussion": "1",
      "published": 1,
      "type": "assignment",
      "grade_item_id": 1109509048,
      "available": 1,
      "completed": 1,
      "dropbox_locked": 0,
      "grading_scale_type": 0,
      "show_rubric": false,
      "display_weight": "2",
      "folder_id": "83268332",
      "last_updated": "1497445793",
      "completion_status": "",
      "links": {
        "self": "https://api.schoology.com/v1/sections/1037358252/assignments/1109509048"
      }
    },
    {
      "id": 1118501752,
      "title": "Домашнее задание 7",
      "description": "Модуль 7.HTML5\nЗадание 1. В прикрепленном к заданию файле lugaprop.zip вы найдете пример сайта. Задача - переделать его в стандарт HTML5 и пройти валидацию.\n ",
      "due": "2017-06-29 23:59:00",
      "grading_scale": "0",
      "grading_period": "0",
      "grading_category": "12734172",
      "max_points": "100",
      "factor": "1",
      "is_final": "0",
      "show_comments": "0",
      "grade_stats": "0",
      "allow_dropbox": "1",
      "allow_discussion": "1",
      "published": 1,
      "type": "assignment",
      "grade_item_id": 1118501752,
      "available": 1,
      "completed": 1,
      "dropbox_locked": 0,
      "grading_scale_type": 0,
      "show_rubric": false,
      "display_weight": "1",
      "folder_id": "83645904",
      "last_updated": "1498144829",
      "completion_status": "",
      "links": {
        "self": "https://api.schoology.com/v1/sections/1037358252/assignments/1118501752"
      }
    },
    {
      "id": 1122740578,
      "title": "Homework_8",
      "description": "Выполнить верстку макетов на основе представленных примеров - w3c_demo, w3c_mountin. Изображение взять произвольные. Размеры, при которых происходит адаптация, если они не указаны в задании, произвольные.\n \nЧитать\nhttp://htmlbook.ru/css/media\nhttp://htmlbook.ru/css/value/media\nhttps://www.w3schools.com/cssref/css3_pr_mediaquery.asp\nhttps://habrahabr.ru/company/google/blog/173861/\nhttps://html5book.ru/css3-mediazaprosy/\n ",
      "due": "2017-07-09 23:59:00",
      "grading_scale": "0",
      "grading_period": "0",
      "grading_category": "12734172",
      "max_points": "100",
      "factor": "1",
      "is_final": "0",
      "show_comments": "0",
      "grade_stats": "0",
      "allow_dropbox": "1",
      "allow_discussion": "1",
      "published": 1,
      "type": "assignment",
      "grade_item_id": 1122740578,
      "available": 1,
      "completed": 1,
      "dropbox_locked": 0,
      "grading_scale_type": 0,
      "show_rubric": false,
      "display_weight": "2",
      "folder_id": "83876384",
      "last_updated": "1498984634",
      "completion_status": "",
      "links": {
        "self": "https://api.schoology.com/v1/sections/1037358252/assignments/1122740578"
      }
    },
    {
      "id": 1125372036,
      "title": "Homework_8.1",
      "description": "",
      "due": "2017-07-17 23:59:00",
      "grading_scale": "0",
      "grading_period": "0",
      "grading_category": "12734172",
      "max_points": "100",
      "factor": "1",
      "is_final": "0",
      "show_comments": "0",
      "grade_stats": "0",
      "allow_dropbox": "1",
      "allow_discussion": "1",
      "published": 1,
      "type": "assignment",
      "grade_item_id": 1125372036,
      "available": 1,
      "completed": 1,
      "dropbox_locked": 0,
      "grading_scale_type": 0,
      "show_rubric": false,
      "display_weight": "0",
      "folder_id": "84035400",
      "last_updated": "1499689862",
      "completion_status": "",
      "links": {
        "self": "https://api.schoology.com/v1/sections/1037358252/assignments/1125372036"
      }
    },
    {
      "id": 1125375902,
      "title": "Homework_9",
      "description": "",
      "due": "2017-07-24 23:59:00",
      "grading_scale": "0",
      "grading_period": "0",
      "grading_category": "12734172",
      "max_points": "100",
      "factor": "1",
      "is_final": "0",
      "show_comments": "0",
      "grade_stats": "0",
      "allow_dropbox": "1",
      "allow_discussion": "1",
      "published": 1,
      "type": "assignment",
      "grade_item_id": 1125375902,
      "available": 1,
      "completed": 1,
      "dropbox_locked": 0,
      "grading_scale_type": 0,
      "show_rubric": false,
      "display_weight": "0",
      "folder_id": "84035692",
      "last_updated": "1500475003",
      "completion_status": "",
      "links": {
        "self": "https://api.schoology.com/v1/sections/1037358252/assignments/1125375902"
      }
    }
  ],
  "total": 12,
  "links": {
    "self": "https://api.schoology.com/v1/sections/1037358252/assignments?start=0&limit=12"
  }
}
